<?xml version="1.0" encoding="UTF-8" standalone="no" ?>
<gpx version="1.1" creator="http://www.geoplaner.com" xmlns:xsi="http://www.w3.org/2001/XMLSchema-instance" xmlns="http://www.topografix.com/GPX/1/1" xsi:schemaLocation="http://www.topografix.com/GPX/1/1 http://www.topografix.com/GPX/1/1/gpx.xsd">

    <trk>
        <name>Example gpx</name>
        <number>1</number>
        <trkseg>	
<!--                    <trkpt lat="47.92112" lon="11.39937">
                        <time>2007-10-14T10:09:57Z</time>
                    </trkpt>
                    <trkpt lat="47.92036" lon="11.39881">
                      <time>2007-10-14T10:10:57Z</time>
                    </trkpt>-->
                    <trkpt lat="47.91996" lon="11.39702">
                        <time>2007-10-14T10:11:57Z</time>
                    </trkpt>
                    <trkpt lat="47.91892" lon="11.39643">
                        <time>2007-10-14T10:12:57Z</time>
                    </trkpt>
                    <trkpt lat="47.91846" lon="11.39619">
                        <time>2007-10-14T10:12:57Z</time>
                    </trkpt>
                    <trkpt lat="47.91797" lon="11.39602">
                        <time>2007-10-14T10:12:57Z</time>
                    </trkpt>

            </trkseg>
    </trk>
</gpx>